Firmware/Phat/RGH1.2 Timing/Multi-NAND Logic/Dual NAND/simulation/qsim/overall.msim.vcd
$comment
	File created using the following command:
		vcd file overall.msim.vcd -direction
$end
$date
	Sat Jan 03 01:38:29 2026
$end
$version
	ModelSim Version 10.5b
$end
$timescale
	1ps
$end

$scope module mux_dual_vlg_vec_tst $end
$var reg 1 ! BUT $end
$var reg 1 " CE_IN $end
$var reg 1 # CLK_D $end
$var reg 1 $ RST $end
$var wire 1 % CED $end
$var wire 1 & CES $end
$var wire 1 ' DBG $end
$var wire 1 ( SMC_RST $end

$scope module i1 $end
$var wire 1 ) gnd $end
$var wire 1 * vcc $end
$var wire 1 + unknown $end
$var tri1 1 , devclrn $end
$var tri1 1 - devpor $end
$var tri1 1 . devoe $end
$var wire 1 / CLK_D~combout $end
$var wire 1 0 BUT~combout $end
$var wire 1 1 RST~combout $end
$var wire 1 2 inst|pre_sw~regout $end
$var wire 1 3 inst|process_1~0 $end
$var wire 1 4 inst|Add2~0_combout $end
$var wire 1 5 inst|Equal2~0_combout $end
$var wire 1 6 inst|Equal2~1_combout $end
$var wire 1 7 inst|counter[0]~0_combout $end
$var wire 1 8 inst|counter[0]~1_combout $end
$var wire 1 9 inst|Equal1~1_combout $end
$var wire 1 : inst|Equal1~0_combout $end
$var wire 1 ; inst|switch~regout $end
$var wire 1 < inst|counter_smc~regout $end
$var wire 1 = inst|SMC~en_regout $end
$var wire 1 > CE_IN~combout $end
$var wire 1 ? inst|m_CES~regout $end
$var wire 1 @ inst2|CES~0_combout $end
$var wire 1 A inst2|CED~0_combout $end
$var wire 1 B inst|counter_dbg [3] $end
$var wire 1 C inst|counter_dbg [2] $end
$var wire 1 D inst|counter_dbg [1] $end
$var wire 1 E inst|counter_dbg [0] $end
$var wire 1 F inst|counter [3] $end
$var wire 1 G inst|counter [2] $end
$var wire 1 H inst|counter [1] $end
$var wire 1 I inst|counter [0] $end
$upscope $end
$upscope $end
$enddefinitions $end
#0
$dumpvars
1!
1"
0#
0$
1%
1&
0'
z(
0)
1*
x+
1,
1-
1.
0/
10
01
02
03
14
15
16
07
08
09
0:
0;
0<
0=
1>
0?
1@
1A
0E
0D
0C
0B
0I
0H
0G
zF
$end
#5000
1#
1/
#10000
0#
0/
#15000
1#
1/
#20000
0#
0/
#25000
1#
1/
#30000
0#
0/
#35000
1#
1/
#40000
0#
0/
#45000
1#
1/
#50000
0!
0"
0#
00
0>
0/
18
0@
0&
#55000
1#
1/
1I
#60000
0#
0/
#65000
1#
1/
1H
0I
#70000
0#
0/
#75000
1#
1/
1I
19
#80000
0#
0/
#85000
1#
1/
1G
0H
0I
09
#90000
0#
0/
#95000
1#
1/
1I
#100000
0#
0/
#105000
1#
1/
1H
0I
#110000
0#
0/
#115000
1#
1/
1I
1:
19
08
#120000
1"
0#
1>
0/
1@
1&
#125000
1#
1/
1;
0G
0H
0I
13
0:
09
18
#130000
0#
0/
#135000
1#
1/
1?
1<
1I
1B
1C
1D
1E
12
06
05
04
03
1'
08
17
#140000
0#
0/
#145000
1#
1/
1=
0<
0E
0(
#150000
1!
0#
10
0/
07
#155000
1#
1/
0=
0I
0D
1E
z(
#160000
0#
0/
#165000
1#
1/
0E
14
#170000
0#
0/
#175000
1#
1/
0C
1D
1E
04
0'
#180000
0#
0/
#185000
1#
1/
0E
#190000
0#
0/
#195000
1#
1/
0D
1E
#200000
0#
0/
#205000
1#
1/
0E
15
14
#210000
0#
0/
#215000
1#
1/
0B
1C
1D
1E
05
04
1'
#220000
0#
0/
#225000
1#
1/
0E
#230000
0#
0/
#235000
1#
1/
0D
1E
#240000
0#
0/
#245000
1#
1/
0E
14
#250000
0#
0/
#255000
1#
1/
0C
1D
1E
04
0'
#260000
0#
0/
#265000
1#
1/
0E
#270000
0#
0/
#275000
1#
1/
0D
1E
#280000
0#
0/
#285000
1#
1/
0E
16
15
14
#290000
0#
0/
#295000
1#
1/
#300000
0#
0/
#305000
1#
1/
#310000
0#
0/
#315000
1#
1/
#320000
0"
0!
0#
0>
00
0/
0A
18
0%
#325000
1#
1/
1I
#330000
0#
0/
#335000
1#
1/
1H
0I
#340000
0#
0/
#345000
1#
1/
1I
19
#350000
0#
0/
#355000
1#
1/
1G
0H
0I
09
#360000
1"
0#
1>
0/
1A
1%
#365000
1#
1/
1I
#370000
0#
0/
#375000
1#
1/
1H
0I
#380000
0#
0/
#385000
1#
1/
1I
1:
19
08
#390000
0"
0#
0>
0/
0A
0%
#395000
1#
1/
0;
0G
0H
0I
13
0:
09
18
#400000
0#
0/
#405000
1#
1/
0?
1<
1I
1C
1D
1E
02
1A
0@
06
05
04
03
1'
08
17
1%
0&
#410000
0#
0/
#415000
1#
1/
1=
0<
0E
0(
#420000
1!
1"
0#
10
1>
0/
07
1@
1&
#425000
1#
1/
0=
0I
0D
1E
z(
#430000
0#
0/
#435000
1#
1/
0E
14
#440000
0#
0/
#445000
1#
1/
0C
1D
1E
04
0'
#450000
0#
0/
#455000
1#
1/
0E
#460000
0#
0/
#465000
1#
1/
0D
1E
#470000
0#
0/
#475000
1#
1/
0E
16
15
14
#480000
0#
0/
#485000
1#
1/
#490000
0#
0/
#495000
1#
1/
#500000
0#
0/
#505000
1#
1/
#510000
0#
0/
#515000
1#
1/
#520000
0#
0/
#525000
1#
1/
#530000
0#
0/
#535000
1#
1/
#540000
0#
0/
#545000
1#
1/
#550000
0"
0#
0>
0/
0@
0&
#555000
1#
1/
#560000
0#
0/
#565000
1#
1/
#570000
0#
0/
#575000
1#
1/
#580000
0#
0/
#585000
1#
1/
#590000
0#
0/
#595000
1#
1/
#600000
1"
0#
1>
0/
1@
1&
#605000
1#
1/
#610000
0#
0/
#615000
1#
1/
#620000
0#
0/
#625000
1#
1/
#630000
0#
0/
#635000
1#
1/
#640000
0#
0/
#645000
1#
1/
#650000
0#
0/
#655000
1#
1/
#660000
0#
0/
#665000
1#
1/
#670000
0"
0#
0>
0/
0@
0&
#675000
1#
1/
#680000
0#
0/
#685000
1#
1/
#690000
0#
0/
#695000
1#
1/
#700000
0#
0/
#705000
1#
1/
#710000
1"
0#
1>
0/
1@
1&
