Firmware/Phat/RGH1.2 Timing/Multi-NAND Logic/Dual NAND/simulation/qsim/overall.msim.vcd
$comment
	File created using the following command:
		vcd file overall.msim.vcd -direction
$end
$date
	Fri Jan 02 21:36:58 2026
$end
$version
	ModelSim Version 10.5b
$end
$timescale
	1ps
$end

$scope module dualnand_vlg_vec_tst $end
$var reg 1 ! BUT $end
$var reg 1 " CLK $end
$var reg 1 # RST $end
$var wire 1 $ DBG $end
$var wire 1 % S $end
$var wire 1 & SMC $end

$scope module i1 $end
$var wire 1 ' gnd $end
$var wire 1 ( vcc $end
$var wire 1 ) unknown $end
$var tri1 1 * devclrn $end
$var tri1 1 + devpor $end
$var tri1 1 , devoe $end
$var wire 1 - CLK~combout $end
$var wire 1 . BUT~combout $end
$var wire 1 / RST~combout $end
$var wire 1 0 process_1~0 $end
$var wire 1 1 Equal2~0_combout $end
$var wire 1 2 Add2~0_combout $end
$var wire 1 3 Equal2~1_combout $end
$var wire 1 4 counter[0]~1_combout $end
$var wire 1 5 counter[0]~0_combout $end
$var wire 1 6 Equal1~1_combout $end
$var wire 1 7 Equal1~0_combout $end
$var wire 1 8 switch~regout $end
$var wire 1 9 pre_sw~regout $end
$var wire 1 : m_CES~regout $end
$var wire 1 ; counter_smc~regout $end
$var wire 1 < SMC~en_regout $end
$var wire 1 = counter_dbg [3] $end
$var wire 1 > counter_dbg [2] $end
$var wire 1 ? counter_dbg [1] $end
$var wire 1 @ counter_dbg [0] $end
$var wire 1 A counter [3] $end
$var wire 1 B counter [2] $end
$var wire 1 C counter [1] $end
$var wire 1 D counter [0] $end
$upscope $end
$upscope $end
$enddefinitions $end
#0
$dumpvars
0!
0"
0#
0$
0%
z&
0'
1(
x)
1*
1+
1,
0-
0.
0/
00
11
12
13
14
05
06
07
08
09
0:
0;
0<
0@
0?
0>
0=
0D
0C
0B
zA
$end
#5000
1"
1-
1D
#10000
0"
0-
#15000
1"
1-
1C
0D
#20000
0"
0-
#25000
1"
1-
1D
16
#30000
0"
0-
#35000
1"
1-
1B
0C
0D
06
#40000
0"
0-
#45000
1"
1-
1D
#50000
0"
0-
#55000
1"
1-
1C
0D
#60000
0"
0-
#65000
1"
1-
1D
17
16
04
#70000
0"
0-
#75000
1"
1-
18
0B
0C
0D
10
07
06
14
#80000
0"
0-
#85000
1"
1-
1;
1:
1D
1>
1=
1?
19
1@
03
01
02
00
1%
1$
15
04
#90000
0"
0-
#95000
1"
1-
1<
0;
0@
0&
#100000
0"
0-
#105000
1"
1-
0<
0?
1@
z&
#110000
0"
0-
#115000
1"
1-
0@
12
#120000
0"
0-
#125000
1"
1-
0>
1?
1@
02
0$
#130000
0"
0-
#135000
1"
1-
0@
#140000
0"
0-
#145000
1"
1-
0?
1@
#150000
0"
0-
#155000
1"
1-
0@
12
11
#160000
0"
0-
#165000
1"
1-
1>
0=
1?
1@
01
02
1$
#170000
0"
0-
#175000
1"
1-
0@
#180000
0"
0-
#185000
1"
1-
0?
1@
#190000
0"
0-
#195000
1"
1-
0@
12
#200000
0"
0-
#205000
1"
1-
0>
1?
1@
02
0$
#210000
0"
0-
#215000
1"
1-
0@
#220000
0"
0-
#225000
1"
1-
0?
1@
#230000
0"
0-
#235000
1"
1-
0@
13
12
11
05
14
#240000
0"
0-
#245000
1"
1-
1C
0D
#250000
0"
0-
#255000
1"
1-
1D
16
#260000
0"
0-
#265000
1"
1-
1B
0C
0D
06
#270000
0"
0-
#275000
1"
1-
1D
#280000
0"
0-
#285000
1"
1-
1C
0D
#290000
0"
0-
#295000
1"
1-
1D
17
16
04
#300000
0"
0-
#305000
1"
1-
08
0B
0C
0D
10
07
06
14
#310000
0"
0-
#315000
1"
1-
1;
0:
1D
1>
1?
09
1@
03
01
02
00
0%
1$
15
04
#320000
0"
0-
#325000
1"
1-
1<
0;
0@
0&
#330000
0"
0-
#335000
1"
1-
0<
0?
1@
z&
#340000
0"
0-
#345000
1"
1-
0@
12
#350000
0"
0-
#355000
1"
1-
0>
1?
1@
02
0$
#360000
0"
0-
#365000
1"
1-
0@
#370000
0"
0-
#375000
1"
1-
0?
1@
#380000
0"
0-
#385000
1"
1-
0@
13
12
11
05
14
#390000
0"
0-
#395000
1"
1-
1C
0D
#400000
0"
0-
#405000
1"
1-
1D
16
#410000
0"
0-
#415000
1"
1-
1B
0C
0D
06
#420000
0"
0-
#425000
1"
1-
1D
#430000
0"
0-
#435000
1"
1-
1C
0D
#440000
0"
0-
#445000
1"
1-
1D
17
16
04
#450000
0"
0-
#455000
1"
1-
18
0B
0C
0D
10
07
06
14
#460000
0"
0-
#465000
1"
1-
1;
1:
1D
1>
1=
1?
19
1@
03
01
02
00
1%
1$
15
04
#470000
0"
0-
#475000
1"
1-
1<
0;
0@
0&
#480000
0"
0-
#485000
1"
1-
0<
0?
1@
z&
#490000
0"
0-
#495000
1"
1-
0@
12
#500000
0"
0-
#505000
1"
1-
0>
1?
1@
02
0$
#510000
0"
0-
#515000
1"
1-
0@
#520000
0"
0-
#525000
1"
1-
0?
1@
#530000
0"
0-
#535000
1"
1-
0@
12
11
#540000
0"
0-
#545000
1"
1-
1>
0=
1?
1@
01
02
1$
#550000
0"
0-
#555000
1"
1-
0@
#560000
0"
0-
#565000
1"
1-
0?
1@
#570000
0"
0-
#575000
1"
1-
0@
12
#580000
0"
0-
#585000
1"
1-
0>
1?
1@
02
0$
#590000
0"
0-
#595000
1"
1-
0@
#600000
0"
0-
#605000
1"
1-
0?
1@
#610000
0"
0-
#615000
1"
1-
0@
13
12
11
05
14
#620000
0"
0-
#625000
1"
1-
1C
0D
#630000
0"
0-
#635000
1"
1-
1D
16
#640000
0"
0-
#645000
1"
1-
1B
0C
0D
06
#650000
0"
0-
#655000
1"
1-
1D
#660000
0"
0-
#665000
1"
1-
1C
0D
#670000
0"
0-
#675000
1"
1-
1D
17
16
04
#680000
0"
0-
#685000
1"
1-
08
0B
0C
0D
10
07
06
14
#690000
0"
0-
#695000
1"
1-
1;
0:
1D
1>
1?
09
1@
03
01
02
00
0%
1$
15
04
#700000
0"
0-
#705000
1"
1-
1<
0;
0@
0&
#710000
0"
0-
#715000
1"
1-
0<
0?
1@
z&
#720000
0"
0-
#725000
1"
1-
0@
12
#730000
0"
0-
#735000
1"
1-
0>
1?
1@
02
0$
#740000
0"
0-
#745000
1"
1-
0@
#750000
0"
0-
#755000
1"
1-
0?
1@
#760000
0"
0-
#765000
1"
1-
0@
13
12
11
05
14
#770000
0"
0-
#775000
1"
1-
1C
0D
#780000
0"
0-
#785000
1"
1-
1D
16
#790000
0"
0-
#795000
1"
1-
1B
0C
0D
06
#800000
0"
0-
#805000
1"
1-
1D
#810000
0"
0-
#815000
1"
1-
1C
0D
#820000
0"
0-
#825000
1"
1-
1D
17
16
04
#830000
0"
0-
#835000
1"
1-
18
0B
0C
0D
10
07
06
14
#840000
0"
0-
#845000
1"
1-
1;
1:
1D
1>
1=
1?
19
1@
03
01
02
00
1%
1$
15
04
#850000
0"
0-
#855000
1"
1-
1<
0;
0@
0&
#860000
0"
0-
#865000
1"
1-
0<
0?
1@
z&
#870000
0"
0-
#875000
1"
1-
0@
12
#880000
0"
0-
#885000
1"
1-
0>
1?
1@
02
0$
#890000
0"
0-
#895000
1"
1-
0@
#900000
0"
0-
#905000
1"
1-
0?
1@
#910000
0"
0-
#915000
1"
1-
0@
12
11
#920000
0"
0-
#925000
1"
1-
1>
0=
1?
1@
01
02
1$
#930000
0"
0-
#935000
1"
1-
0@
#940000
0"
0-
#945000
1"
1-
0?
1@
#950000
0"
0-
#955000
1"
1-
0@
12
#960000
0"
0-
#965000
1"
1-
0>
1?
1@
02
0$
#970000
0"
0-
#975000
1"
1-
0@
#980000
0"
0-
#985000
1"
1-
0?
1@
#990000
0"
0-
#995000
1"
1-
0@
13
12
11
05
14
