Firmware/Phat/RGH1.2 Timing/Multi-NAND Logic/Dual NAND/simulation/qsim/overall.msim.vcd
$comment
	File created using the following command:
		vcd file overall.msim.vcd -direction
$end
$date
	Mon Jan 05 18:14:00 2026
$end
$version
	ModelSim Version 10.5b
$end
$timescale
	1ps
$end

$scope module dualnand_vhd_vec_tst $end
$var wire 1 ! BUT $end
$var wire 1 " CE_IN $end
$var wire 1 # CED $end
$var wire 1 $ CES $end
$var wire 1 % CLK $end
$var wire 1 & DBG $end
$var wire 1 ' RST $end
$var wire 1 ( SMC $end

$scope module i1 $end
$var wire 1 ) gnd $end
$var wire 1 * vcc $end
$var wire 1 + unknown $end
$var wire 1 , devoe $end
$var wire 1 - devclrn $end
$var wire 1 . devpor $end
$var wire 1 / ww_devoe $end
$var wire 1 0 ww_devclrn $end
$var wire 1 1 ww_devpor $end
$var wire 1 2 ww_RST $end
$var wire 1 3 ww_BUT $end
$var wire 1 4 ww_CLK $end
$var wire 1 5 ww_CE_IN $end
$var wire 1 6 ww_CES $end
$var wire 1 7 ww_CED $end
$var wire 1 8 ww_SMC $end
$var wire 1 9 ww_DBG $end
$var wire 1 : \CE_IN~combout\ $end
$var wire 1 ; \CLK~combout\ $end
$var wire 1 < \RST~combout\ $end
$var wire 1 = \BUT~combout\ $end
$var wire 1 > \process_1~0\ $end
$var wire 1 ? \Equal2~0_combout\ $end
$var wire 1 @ \Add2~0_combout\ $end
$var wire 1 A \Equal2~1_combout\ $end
$var wire 1 B \counter[0]~1_combout\ $end
$var wire 1 C \counter[2]~0_combout\ $end
$var wire 1 D \Add0~0_combout\ $end
$var wire 1 E \Equal1~0_combout\ $end
$var wire 1 F \switch~regout\ $end
$var wire 1 G \pre_sw~regout\ $end
$var wire 1 H \m_CES~regout\ $end
$var wire 1 I \CES~0_combout\ $end
$var wire 1 J \CED~0_combout\ $end
$var wire 1 K \counter_smc~regout\ $end
$var wire 1 L \SMC~en_regout\ $end
$var wire 1 M counter_dbg [3] $end
$var wire 1 N counter_dbg [2] $end
$var wire 1 O counter_dbg [1] $end
$var wire 1 P counter_dbg [0] $end
$var wire 1 Q counter [2] $end
$var wire 1 R counter [1] $end
$var wire 1 S counter [0] $end
$var wire 1 T \ALT_INV_SMC~en_regout\ $end
$upscope $end
$upscope $end
$enddefinitions $end
#0
$dumpvars
1!
1"
1#
1$
0%
0&
0'
z(
0)
1*
x+
1,
1-
1.
1/
10
11
02
13
04
15
16
17
z8
09
1:
0;
0<
1=
0>
1?
1@
1A
1B
0C
0D
0E
0F
0G
0H
1I
1J
0K
0L
1T
0M
0N
0O
0P
0Q
0R
0S
$end
#5000
1%
14
1;
#10000
0%
04
0;
#15000
1%
14
1;
#20000
0%
04
0;
#25000
1%
14
1;
#30000
0%
0"
04
05
0:
0;
0I
06
0$
#35000
1%
14
1;
#40000
0%
04
0;
#45000
1%
14
1;
#50000
0%
0!
04
03
0=
0;
1C
#55000
1%
14
1;
1S
#60000
0%
04
0;
#65000
1%
14
1;
1R
0S
#70000
0%
04
0;
#75000
1%
14
1;
1S
1D
#80000
0%
04
0;
#85000
1%
14
1;
1Q
0R
0S
0D
#90000
0%
04
0;
#95000
1%
14
1;
1S
#100000
0%
04
0;
#105000
1%
14
1;
1R
0S
#110000
0%
04
0;
#115000
1%
14
1;
1S
1D
1E
0C
#120000
0%
04
0;
#125000
1%
14
1;
1F
0Q
0R
0S
0D
0E
1>
1C
#130000
0%
1"
04
15
1:
0;
1I
16
1$
#135000
1%
14
1;
1K
1H
1S
1N
1M
1O
1G
1P
0>
0@
0?
0A
19
1&
0B
0C
#140000
0%
04
0;
#145000
1%
14
1;
1L
0K
0P
0T
08
0(
#150000
0%
1!
04
13
1=
0;
1B
#155000
1%
14
1;
0L
0S
0O
1P
1T
z8
z(
#160000
0%
04
0;
#165000
1%
14
1;
0P
1@
#170000
0%
0"
04
05
0:
0;
0J
07
0#
#175000
1%
14
1;
0N
1O
1P
0@
09
0&
#180000
0%
04
0;
#185000
1%
14
1;
0P
#190000
0%
04
0;
#195000
1%
14
1;
0O
1P
#200000
0%
04
0;
#205000
1%
14
1;
0P
1?
1@
#210000
0%
04
0;
#215000
1%
14
1;
1N
0M
1O
1P
0@
0?
19
1&
#220000
0%
04
0;
#225000
1%
14
1;
0P
#230000
0%
1"
04
15
1:
0;
1J
17
1#
#235000
1%
14
1;
0O
1P
#240000
0%
04
0;
#245000
1%
14
1;
0P
1@
#250000
0%
04
0;
#255000
1%
14
1;
0N
1O
1P
0@
09
0&
#260000
0%
04
0;
#265000
1%
14
1;
0P
#270000
0%
0"
04
05
0:
0;
0J
07
0#
#275000
1%
14
1;
0O
1P
#280000
0%
04
0;
#285000
1%
14
1;
0P
1?
1@
1A
#290000
0%
04
0;
#295000
1%
14
1;
#300000
0%
04
0;
#305000
1%
14
1;
#310000
0%
04
0;
#315000
1%
14
1;
#320000
0%
04
0;
#325000
1%
14
1;
#330000
0%
04
0;
#335000
1%
14
1;
#340000
0%
04
0;
#345000
1%
14
1;
#350000
0%
04
0;
#355000
1%
14
1;
#360000
0%
04
0;
#365000
1%
14
1;
#370000
0%
04
0;
#375000
1%
14
1;
#380000
0%
04
0;
#385000
1%
14
1;
#390000
0%
04
0;
#395000
1%
14
1;
#400000
0%
04
0;
#405000
1%
14
1;
#410000
0%
04
0;
#415000
1%
14
1;
#420000
0%
04
0;
#425000
1%
14
1;
#430000
0%
04
0;
#435000
1%
14
1;
#440000
0%
04
0;
#445000
1%
14
1;
#450000
0%
04
0;
#455000
1%
14
1;
#460000
0%
1"
04
15
1:
0;
1J
17
1#
#465000
1%
14
1;
#470000
0%
04
0;
#475000
1%
14
1;
#480000
0%
04
0;
#485000
1%
14
1;
#490000
0%
0"
04
05
0:
0;
0J
07
0#
#495000
1%
14
1;
#500000
0%
04
0;
#505000
1%
14
1;
#510000
0%
04
0;
#515000
1%
14
1;
#520000
0%
1"
04
15
1:
0;
1J
17
1#
#525000
1%
14
1;
#530000
0%
04
0;
#535000
1%
14
1;
#540000
0%
04
0;
#545000
1%
14
1;
#550000
0%
0"
04
05
0:
0;
0J
07
0#
#555000
1%
14
1;
#560000
0%
04
0;
#565000
1%
14
1;
#570000
0%
04
0;
#575000
1%
14
1;
#580000
0%
1"
04
15
1:
0;
1J
17
1#
#585000
1%
14
1;
#590000
0%
04
0;
#595000
1%
14
1;
#600000
0%
04
0;
#605000
1%
14
1;
#610000
0%
0"
04
05
0:
0;
0J
07
0#
#615000
1%
14
1;
#620000
0%
04
0;
#625000
1%
14
1;
#630000
0%
04
0;
#635000
1%
14
1;
#640000
0%
04
0;
#645000
1%
14
1;
#650000
0%
04
0;
#655000
1%
14
1;
#660000
0%
04
0;
#665000
1%
14
1;
#670000
0%
04
0;
#675000
1%
14
1;
#680000
0%
04
0;
#685000
1%
14
1;
#690000
0%
04
0;
#695000
1%
14
1;
#700000
0%
04
0;
#705000
1%
14
1;
#710000
0%
04
0;
#715000
1%
14
1;
#720000
0%
04
0;
#725000
1%
14
1;
#730000
0%
1"
04
15
1:
0;
1J
17
1#
#735000
1%
14
1;
#740000
0%
04
0;
#745000
1%
14
1;
#750000
0%
04
0;
#755000
1%
14
1;
#760000
0%
04
0;
#765000
1%
14
1;
#770000
0%
0"
04
05
0:
0;
0J
07
0#
#775000
1%
14
1;
#780000
0%
04
0;
#785000
1%
14
1;
#790000
0%
04
0;
#795000
1%
14
1;
#800000
0%
04
0;
#805000
1%
14
1;
#810000
0%
04
0;
#815000
1%
14
1;
#820000
0%
04
0;
#825000
1%
14
1;
#830000
0%
04
0;
#835000
1%
14
1;
#840000
0%
04
0;
#845000
1%
14
1;
#850000
0%
04
0;
#855000
1%
14
1;
#860000
0%
04
0;
#865000
1%
14
1;
#870000
0%
04
0;
#875000
1%
14
1;
#880000
0%
04
0;
#885000
1%
14
1;
#890000
0%
04
0;
#895000
1%
14
1;
#900000
0%
04
0;
#905000
1%
14
1;
#910000
0%
1"
04
15
1:
0;
1J
17
1#
#915000
1%
14
1;
#920000
0%
04
0;
#925000
1%
14
1;
#930000
0%
04
0;
#935000
1%
14
1;
#940000
0%
04
0;
#945000
1%
14
1;
#950000
0%
0"
04
05
0:
0;
0J
07
0#
#955000
1%
14
1;
#960000
0%
04
0;
#965000
1%
14
1;
#970000
0%
04
0;
#975000
1%
14
1;
#980000
0%
04
0;
#985000
1%
14
1;
#990000
0%
04
0;
#995000
1%
14
1;
