Firmware/Phat/RGH1.2 Timing/Multi-NAND Logic/Triple NAND/simulation/qsim/overall.msim.vcd
$comment
	File created using the following command:
		vcd file overall.msim.vcd -direction
$end
$date
	Sat Jan 03 02:29:08 2026
$end
$version
	ModelSim Version 10.5b
$end
$timescale
	1ps
$end

$scope module mux_triple_vlg_vec_tst $end
$var reg 1 ! BUT $end
$var reg 1 " CE_IN $end
$var reg 1 # CLK_D $end
$var reg 1 $ RST $end
$var wire 1 % CED $end
$var wire 1 & CES $end
$var wire 1 ' CET $end
$var wire 1 ( DBG $end
$var wire 1 ) SMC_RST $end

$scope module i1 $end
$var wire 1 * gnd $end
$var wire 1 + vcc $end
$var wire 1 , unknown $end
$var tri1 1 - devclrn $end
$var tri1 1 . devpor $end
$var tri1 1 / devoe $end
$var wire 1 0 CLK_D~combout $end
$var wire 1 1 inst|Equal3~0 $end
$var wire 1 2 BUT~combout $end
$var wire 1 3 RST~combout $end
$var wire 1 4 inst|Add2~11_combout $end
$var wire 1 5 inst|Add2~13 $end
$var wire 1 6 inst|Add2~13COUT1_29 $end
$var wire 1 7 inst|Add2~6_combout $end
$var wire 1 8 inst|Add2~8 $end
$var wire 1 9 inst|Add2~8COUT1_30 $end
$var wire 1 : inst|Add2~0_combout $end
$var wire 1 ; inst|Equal4~0 $end
$var wire 1 < inst|Add2~2 $end
$var wire 1 = inst|Add2~2COUT1_31 $end
$var wire 1 > inst|Add2~23_combout $end
$var wire 1 ? inst|Add2~25 $end
$var wire 1 @ inst|Add2~25COUT1_32 $end
$var wire 1 A inst|Add2~18_combout $end
$var wire 1 B inst|Equal5~0_combout $end
$var wire 1 C inst|Equal5~1_combout $end
$var wire 1 D inst|counter[0]~1_combout $end
$var wire 1 E inst|counter[0]~0_combout $end
$var wire 1 F inst|Equal1~1_combout $end
$var wire 1 G inst|Equal1~2_combout $end
$var wire 1 H inst|process_1~0_combout $end
$var wire 1 I inst|Equal1~0_combout $end
$var wire 1 J inst|switch[0]~0_combout $end
$var wire 1 K inst|Equal2~0 $end
$var wire 1 L inst|counter_smc~regout $end
$var wire 1 M inst|SMC~en_regout $end
$var wire 1 N inst|m_CES~regout $end
$var wire 1 O inst|m_CED~regout $end
$var wire 1 P inst|m_CET~regout $end
$var wire 1 Q inst|process_0~0_combout $end
$var wire 1 R inst|S1~0_combout $end
$var wire 1 S inst|S1~combout $end
$var wire 1 T inst|comb~0 $end
$var wire 1 U inst|comb~1 $end
$var wire 1 V inst|S2~combout $end
$var wire 1 W CE_IN~combout $end
$var wire 1 X inst1|Mux0~0_combout $end
$var wire 1 Y inst1|Mux1~0_combout $end
$var wire 1 Z inst1|Mux2~0_combout $end
$var wire 1 [ inst|counter_dbg [4] $end
$var wire 1 \ inst|counter_dbg [3] $end
$var wire 1 ] inst|counter_dbg [2] $end
$var wire 1 ^ inst|counter_dbg [1] $end
$var wire 1 _ inst|counter_dbg [0] $end
$var wire 1 ` inst|switch [1] $end
$var wire 1 a inst|switch [0] $end
$var wire 1 b inst|pre_sw [1] $end
$var wire 1 c inst|pre_sw [0] $end
$var wire 1 d inst|counter [3] $end
$var wire 1 e inst|counter [2] $end
$var wire 1 f inst|counter [1] $end
$var wire 1 g inst|counter [0] $end
$upscope $end
$upscope $end
$enddefinitions $end
#0
$dumpvars
1!
1"
0#
0$
1%
1&
1'
0(
z)
0*
1+
x,
1-
1.
1/
00
01
12
03
14
05
06
17
18
19
1:
0;
0<
0=
1>
1?
1@
1A
1B
1C
0D
0E
0F
0G
1H
0I
0J
0K
0L
0M
0N
0O
0P
0Q
1R
1S
1T
0U
0V
1W
1X
1Y
1Z
0_
0^
0]
0\
0[
0a
0`
0c
0b
0g
0f
0e
0d
$end
#5000
1#
10
#10000
0#
00
#15000
1#
10
#20000
0#
00
#25000
1#
10
#30000
0#
00
#35000
1#
10
#40000
0!
0#
02
00
1D
#45000
1#
10
1g
#50000
0#
00
#55000
1#
10
1f
0g
#60000
0#
00
#65000
1#
10
1g
1F
#70000
0"
0#
0W
00
0X
0&
#75000
1#
10
1e
0f
0g
0F
#80000
0#
00
#85000
1#
10
1g
#90000
0#
00
#95000
1#
10
1f
0g
#100000
1"
0#
1W
00
1X
1&
#105000
1#
10
1g
1I
1G
1F
1J
0H
0D
#110000
0#
00
#115000
1#
10
1a
0e
0f
0g
1K
1;
11
0I
0G
0F
0J
1H
1D
#120000
0#
00
#125000
1#
10
1O
1L
1c
1g
1\
1]
1^
1_
1N
1Q
0T
0C
0@
0?
0>
1=
1<
0:
0B
09
08
07
16
15
04
1U
0K
1(
0S
1V
0H
1E
0D
0A
1>
1:
17
#130000
0#
00
#135000
1#
10
1M
0L
0_
06
05
14
0)
07
#140000
0#
00
#145000
1#
10
0M
0^
1_
19
18
17
16
15
04
z)
0:
09
08
07
1:
#150000
1!
0"
0#
12
0W
00
0E
0Y
0%
#155000
1#
10
0g
0_
1B
06
05
14
19
18
17
0:
#160000
0#
00
#165000
1#
10
0]
1^
1_
0=
0<
1:
0B
09
08
07
16
15
04
0(
0>
1=
1<
0:
17
1>
#170000
0#
00
#175000
1#
10
0_
06
05
14
07
#180000
0#
00
#185000
1#
10
0^
1_
19
18
17
16
15
04
0=
0<
1:
09
08
07
0>
1=
1<
0:
1>
#190000
0#
00
#195000
1#
10
0_
1B
06
05
14
19
18
17
0=
0<
1:
0>
#200000
0#
00
#205000
1#
10
0\
1]
1^
1_
1@
1?
1>
1=
1<
0:
0B
09
08
07
16
15
04
1(
1A
0@
0?
0>
1:
17
0A
#210000
0#
00
#215000
1#
10
0_
06
05
14
07
#220000
1"
0#
1W
00
1Y
1%
#225000
1#
10
0^
1_
19
18
17
16
15
04
0:
09
08
07
1:
#230000
0#
00
#235000
1#
10
0_
1B
06
05
14
19
18
17
0:
#240000
0#
00
#245000
1#
10
0]
1^
1_
1C
0=
0<
1:
0B
09
08
07
16
15
04
0(
1H
1@
1?
1>
0C
1=
1<
0:
17
1A
0H
0@
0?
0>
0A
#250000
0"
0#
0W
00
0Y
0%
#255000
1#
10
0_
06
05
14
07
#260000
0#
00
#265000
1#
10
0^
1_
19
18
17
16
15
04
0=
0<
1:
09
08
07
1@
1?
1>
1=
1<
0:
1A
0@
0?
0>
0A
#270000
1"
0#
1W
00
1Y
1%
#275000
1#
10
0_
1B
06
05
14
1C
19
18
17
1H
0=
0<
1:
1@
1?
1>
1A
#280000
0#
00
#285000
1#
10
#290000
0#
00
#295000
1#
10
#300000
0#
00
#305000
1#
10
#310000
0"
0#
0W
00
0Y
0%
#315000
1#
10
#320000
0#
00
#325000
1#
10
#330000
0#
00
#335000
1#
10
#340000
1"
0#
1W
00
1Y
1%
#345000
1#
10
#350000
0!
0#
02
00
1D
#355000
1#
10
1g
#360000
0#
00
#365000
1#
10
1f
0g
#370000
0#
00
#375000
1#
10
1g
1F
#380000
0#
00
#385000
1#
10
1e
0f
0g
0F
#390000
0#
00
#395000
1#
10
1g
#400000
0#
00
#405000
1#
10
1f
0g
#410000
0#
00
#415000
1#
10
1g
1I
1G
1F
1J
0H
0D
#420000
0#
00
#425000
1#
10
0a
0e
0f
0g
1`
1K
0;
0I
0G
0F
0J
1H
1D
#430000
0#
00
#435000
1#
10
1P
0O
1L
0c
1b
1g
1[
1]
1^
1_
0Q
0K
0C
0A
1=
1<
0:
0B
09
08
07
16
15
04
1(
1S
0H
1E
0D
0@
0?
0>
1:
17
1A
#440000
0#
00
#445000
1#
10
1M
0L
0_
06
05
14
0)
07
#450000
0#
00
#455000
1#
10
0M
0^
1_
19
18
17
16
15
04
z)
0:
09
08
07
1:
#460000
0"
1!
0#
0W
12
00
0Z
0E
0'
#465000
1#
10
0g
0_
1B
06
05
14
19
18
17
0:
#470000
0#
00
#475000
1#
10
0]
1^
1_
0=
0<
1:
0B
09
08
07
16
15
04
0(
1@
1?
1>
1=
1<
0:
17
0A
0@
0?
0>
1A
#480000
0#
00
#485000
1#
10
0_
06
05
14
07
#490000
0#
00
#495000
1#
10
0^
1_
19
18
17
16
15
04
0=
0<
1:
09
08
07
1@
1?
1>
1=
1<
0:
0A
0@
0?
0>
1A
#500000
0#
00
#505000
1#
10
0_
1B
06
05
14
19
18
17
0=
0<
1:
1@
1?
1>
0A
#510000
0#
00
#515000
1#
10
0[
1\
1]
1^
1_
1A
0@
0?
0>
1=
1<
0:
0B
09
08
07
16
15
04
1(
0A
1>
1:
17
#520000
0#
00
#525000
1#
10
0_
06
05
14
07
#530000
0#
00
#535000
1#
10
0^
1_
19
18
17
16
15
04
0:
09
08
07
1:
#540000
0#
00
#545000
1#
10
0_
1B
06
05
14
19
18
17
0:
#550000
0#
00
#555000
1#
10
0]
1^
1_
0=
0<
1:
0B
09
08
07
16
15
04
0(
0>
1=
1<
0:
17
1>
#560000
0#
00
#565000
1#
10
0_
06
05
14
07
#570000
0#
00
#575000
1#
10
0^
1_
19
18
17
16
15
04
0=
0<
1:
09
08
07
0>
1=
1<
0:
1>
#580000
1"
0#
1W
00
1Z
1'
#585000
1#
10
0_
1B
06
05
14
19
18
17
0=
0<
1:
0>
#590000
0#
00
#595000
1#
10
0\
1]
1^
1_
1@
1?
1>
1=
1<
0:
0B
09
08
07
16
15
04
1(
1A
0@
0?
0>
1:
17
0A
#600000
0#
00
#605000
1#
10
0_
06
05
14
07
#610000
0#
00
#615000
1#
10
0^
1_
19
18
17
16
15
04
0:
09
08
07
1:
#620000
0#
00
#625000
1#
10
0_
1B
06
05
14
19
18
17
0:
#630000
0#
00
#635000
1#
10
0]
1^
1_
1C
0=
0<
1:
0B
09
08
07
16
15
04
0(
1H
1@
1?
1>
0C
1=
1<
0:
17
1A
0H
0@
0?
0>
0A
#640000
0#
00
#645000
1#
10
0_
06
05
14
07
#650000
0#
00
#655000
1#
10
0^
1_
19
18
17
16
15
04
0=
0<
1:
09
08
07
1@
1?
1>
1=
1<
0:
1A
0@
0?
0>
0A
#660000
0#
00
#665000
1#
10
0_
1B
06
05
14
1C
19
18
17
1H
0=
0<
1:
1@
1?
1>
1A
#670000
0#
00
#675000
1#
10
#680000
0!
0#
02
00
1D
#685000
1#
10
1g
#690000
0#
00
#695000
1#
10
1f
0g
#700000
0#
00
#705000
1#
10
1g
1F
#710000
0#
00
#715000
1#
10
1e
0f
0g
0F
#720000
0#
00
#725000
1#
10
1g
#730000
0#
00
#735000
1#
10
1f
0g
#740000
0#
00
#745000
1#
10
1g
1I
1G
1F
1J
0H
0D
#750000
0#
00
#755000
1#
10
0e
0f
0g
0`
0I
0G
0F
1K
01
0J
1H
1D
#760000
0#
00
#765000
1#
10
0P
1L
0b
1g
1]
1^
1_
0N
0U
0K
0C
1=
1<
0:
0B
09
08
07
16
15
04
1T
1(
0V
0H
1E
0D
0@
0?
0>
1:
17
0A
#770000
0#
00
#775000
1#
10
1M
0L
0_
06
05
14
0)
07
#780000
0#
00
#785000
1#
10
0M
0^
1_
19
18
17
16
15
04
z)
0:
09
08
07
1:
#790000
0"
1!
0#
0W
12
00
0X
0E
0&
#795000
1#
10
0g
0_
1B
06
05
14
19
18
17
0:
#800000
0#
00
#805000
1#
10
0]
1^
1_
1C
0=
0<
1:
0B
09
08
07
16
15
04
0(
1H
1@
1?
1>
0C
1=
1<
0:
17
1A
0H
0@
0?
0>
0A
#810000
0#
00
#815000
1#
10
0_
06
05
14
07
#820000
0#
00
#825000
1#
10
0^
1_
19
18
17
16
15
04
0=
0<
1:
09
08
07
1@
1?
1>
1=
1<
0:
1A
0@
0?
0>
0A
#830000
1"
0#
1W
00
1X
1&
#835000
1#
10
0_
1B
06
05
14
1C
19
18
17
1H
0=
0<
1:
1@
1?
1>
1A
#840000
0#
00
#845000
1#
10
#850000
0#
00
#855000
1#
10
#860000
0#
00
#865000
1#
10
#870000
0"
0#
0W
00
0X
0&
#875000
1#
10
#880000
0#
00
#885000
1#
10
#890000
0#
00
#895000
1#
10
#900000
1"
0#
1W
00
1X
1&
#905000
1#
10
#910000
0#
00
#915000
1#
10
#920000
0#
00
#925000
1#
10
#930000
0"
0#
0W
00
0X
0&
#935000
1#
10
#940000
0#
00
#945000
1#
10
#950000
0#
00
#955000
1#
10
#960000
1"
0#
1W
00
1X
1&
