Firmware/Phat/RGH1.2 Timing/Multi-NAND Logic/Triple NAND/simulation/qsim/overall.msim.vcd
$comment
	File created using the following command:
		vcd file overall.msim.vcd -direction
$end
$date
	Sun Jan 04 17:54:22 2026
$end
$version
	ModelSim Version 10.5b
$end
$timescale
	1ps
$end

$scope module triplenand_vlg_vec_tst $end
$var reg 1 ! BUT $end
$var reg 1 " CE_IN $end
$var reg 1 # CLK $end
$var reg 1 $ RST $end
$var wire 1 % CED $end
$var wire 1 & CES $end
$var wire 1 ' CET $end
$var wire 1 ( DBG $end
$var wire 1 ) SMC $end

$scope module i1 $end
$var wire 1 * gnd $end
$var wire 1 + vcc $end
$var wire 1 , unknown $end
$var tri1 1 - devclrn $end
$var tri1 1 . devpor $end
$var tri1 1 / devoe $end
$var wire 1 0 m_CET~regout $end
$var wire 1 1 CLK~combout $end
$var wire 1 2 Equal2~0 $end
$var wire 1 3 Equal3~0 $end
$var wire 1 4 RST~combout $end
$var wire 1 5 BUT~combout $end
$var wire 1 6 Add2~11_combout $end
$var wire 1 7 Add2~13 $end
$var wire 1 8 Add2~13COUT1_29 $end
$var wire 1 9 Add2~6_combout $end
$var wire 1 : Add2~8 $end
$var wire 1 ; Add2~8COUT1_30 $end
$var wire 1 < Add2~0_combout $end
$var wire 1 = Add2~2 $end
$var wire 1 > Add2~2COUT1_31 $end
$var wire 1 ? Add2~23_combout $end
$var wire 1 @ Add2~25 $end
$var wire 1 A Add2~25COUT1_32 $end
$var wire 1 B Add2~18_combout $end
$var wire 1 C Equal5~0_combout $end
$var wire 1 D Equal5~1_combout $end
$var wire 1 E counter[0]~1_combout $end
$var wire 1 F counter[0]~0_combout $end
$var wire 1 G Equal1~1_combout $end
$var wire 1 H process_1~0_combout $end
$var wire 1 I Equal1~2_combout $end
$var wire 1 J Equal1~0_combout $end
$var wire 1 K switch[0]~0_combout $end
$var wire 1 L Equal4~0 $end
$var wire 1 M m_CES~regout $end
$var wire 1 N CE_IN~combout $end
$var wire 1 O CES~0_combout $end
$var wire 1 P m_CED~regout $end
$var wire 1 Q CED~0_combout $end
$var wire 1 R CET~0 $end
$var wire 1 S counter_smc~regout $end
$var wire 1 T SMC~en_regout $end
$var wire 1 U counter_dbg [4] $end
$var wire 1 V counter_dbg [3] $end
$var wire 1 W counter_dbg [2] $end
$var wire 1 X counter_dbg [1] $end
$var wire 1 Y counter_dbg [0] $end
$var wire 1 Z switch [1] $end
$var wire 1 [ switch [0] $end
$var wire 1 \ pre_sw [1] $end
$var wire 1 ] pre_sw [0] $end
$var wire 1 ^ counter [3] $end
$var wire 1 _ counter [2] $end
$var wire 1 ` counter [1] $end
$var wire 1 a counter [0] $end
$upscope $end
$upscope $end
$enddefinitions $end
#0
$dumpvars
1!
1"
0#
0$
1%
1&
1'
0(
z)
0*
1+
x,
1-
1.
1/
00
01
02
03
04
15
16
07
08
19
1:
1;
1<
0=
0>
1?
1@
1A
1B
1C
1D
0E
0F
0G
1H
0I
0J
0K
0L
0M
1N
1O
0P
1Q
1R
0S
0T
0Y
0X
0W
0V
0U
0[
0Z
0]
0\
0a
0`
0_
0^
$end
#5000
1#
11
#10000
0!
0#
05
01
1E
#15000
1#
11
1a
#20000
0#
01
#25000
1#
11
1`
0a
#30000
0#
01
#35000
1#
11
1a
1G
#40000
0#
01
#45000
1#
11
1_
0`
0a
0G
#50000
0#
01
#55000
1#
11
1a
#60000
0#
01
#65000
1#
11
1`
0a
#70000
0"
0#
0N
01
0O
0&
#75000
1#
11
1a
1J
1I
1G
1K
0H
0E
#80000
0#
01
#85000
1#
11
1[
0_
0`
0a
1L
13
12
0J
0I
0G
0K
1H
1E
#90000
0#
01
#95000
1#
11
1S
1P
1a
1V
1W
1X
1Y
1M
1]
0Q
0D
0A
0@
0?
1>
1=
0<
0C
0;
0:
09
18
17
06
1O
02
1(
0H
1F
0E
0B
1?
1<
19
0%
1&
#100000
0#
01
#105000
1#
11
1T
0S
0Y
08
07
16
0)
09
#110000
1!
1"
0#
15
1N
01
0F
1Q
1%
#115000
1#
11
0T
0a
0X
1Y
1;
1:
19
18
17
06
z)
0<
0;
0:
09
1<
#120000
0#
01
#125000
1#
11
0Y
1C
08
07
16
1;
1:
19
0<
#130000
0#
01
#135000
1#
11
0W
1X
1Y
0>
0=
1<
0C
0;
0:
09
18
17
06
0(
0?
1>
1=
0<
19
1?
#140000
0#
01
#145000
1#
11
0Y
08
07
16
09
#150000
0#
01
#155000
1#
11
0X
1Y
1;
1:
19
18
17
06
0>
0=
1<
0;
0:
09
0?
1>
1=
0<
1?
#160000
0#
01
#165000
1#
11
0Y
1C
08
07
16
1;
1:
19
0>
0=
1<
0?
#170000
0#
01
#175000
1#
11
0V
1W
1X
1Y
1A
1@
1?
1>
1=
0<
0C
0;
0:
09
18
17
06
1(
1B
0A
0@
0?
1<
19
0B
#180000
0#
01
#185000
1#
11
0Y
08
07
16
09
#190000
0#
01
#195000
1#
11
0X
1Y
1;
1:
19
18
17
06
0<
0;
0:
09
1<
#200000
0#
01
#205000
1#
11
0Y
1C
08
07
16
1;
1:
19
0<
#210000
0"
0#
0N
01
0Q
0%
#215000
1#
11
0W
1X
1Y
1D
0>
0=
1<
0C
0;
0:
09
18
17
06
0(
1H
1A
1@
1?
0D
1>
1=
0<
19
1B
0H
0A
0@
0?
0B
#220000
0#
01
#225000
1#
11
0Y
08
07
16
09
#230000
0#
01
#235000
1#
11
0X
1Y
1;
1:
19
18
17
06
0>
0=
1<
0;
0:
09
1A
1@
1?
1>
1=
0<
1B
0A
0@
0?
0B
#240000
1"
0#
1N
01
1Q
1%
#245000
1#
11
0Y
1C
08
07
16
1D
1;
1:
19
1H
0>
0=
1<
1A
1@
1?
1B
#250000
0#
01
#255000
1#
11
#260000
0#
01
#265000
1#
11
#270000
0!
0#
05
01
1E
#275000
1#
11
1a
#280000
0"
0#
0N
01
0Q
0%
#285000
1#
11
1`
0a
#290000
0#
01
#295000
1#
11
1a
1G
#300000
0#
01
#305000
1#
11
1_
0`
0a
0G
#310000
1"
0#
1N
01
1Q
1%
#315000
1#
11
1a
#320000
0#
01
#325000
1#
11
1`
0a
#330000
0#
01
#335000
1#
11
1a
1J
1I
1G
1K
0H
0E
#340000
0#
01
#345000
1#
11
1Z
0[
0_
0`
0a
0L
12
0J
0I
0G
0K
1H
1E
#350000
0#
01
#355000
1#
11
1S
10
0P
1a
1U
1W
1X
1Y
0]
1\
0D
0B
1>
1=
0<
0C
0;
0:
09
18
17
06
02
1(
0H
1F
0E
0A
0@
0?
1<
19
1B
#360000
0#
01
#365000
1#
11
1T
0S
0Y
08
07
16
0)
09
#370000
1!
0#
15
01
0F
#375000
1#
11
0T
0a
0X
1Y
1;
1:
19
18
17
06
z)
0<
0;
0:
09
1<
#380000
0#
01
#385000
1#
11
0Y
1C
08
07
16
1;
1:
19
0<
#390000
0#
01
#395000
1#
11
0W
1X
1Y
0>
0=
1<
0C
0;
0:
09
18
17
06
0(
1A
1@
1?
1>
1=
0<
19
0B
0A
0@
0?
1B
#400000
0#
01
#405000
1#
11
0Y
08
07
16
09
#410000
0#
01
#415000
1#
11
0X
1Y
1;
1:
19
18
17
06
0>
0=
1<
0;
0:
09
1A
1@
1?
1>
1=
0<
0B
0A
0@
0?
1B
#420000
0#
01
#425000
1#
11
0Y
1C
08
07
16
1;
1:
19
0>
0=
1<
1A
1@
1?
0B
#430000
0"
0#
0N
01
0R
0'
#435000
1#
11
0U
1V
1W
1X
1Y
1B
0A
0@
0?
1>
1=
0<
0C
0;
0:
09
18
17
06
1(
0B
1?
1<
19
#440000
0#
01
#445000
1#
11
0Y
08
07
16
09
#450000
0#
01
#455000
1#
11
0X
1Y
1;
1:
19
18
17
06
0<
0;
0:
09
1<
#460000
0#
01
#465000
1#
11
0Y
1C
08
07
16
1;
1:
19
0<
#470000
0#
01
#475000
1#
11
0W
1X
1Y
0>
0=
1<
0C
0;
0:
09
18
17
06
0(
0?
1>
1=
0<
19
1?
#480000
0#
01
#485000
1#
11
0Y
08
07
16
09
#490000
0#
01
#495000
1#
11
0X
1Y
1;
1:
19
18
17
06
0>
0=
1<
0;
0:
09
0?
1>
1=
0<
1?
#500000
1"
0#
1N
01
1R
1'
#505000
1#
11
0Y
1C
08
07
16
1;
1:
19
0>
0=
1<
0?
#510000
0#
01
#515000
1#
11
0V
1W
1X
1Y
1A
1@
1?
1>
1=
0<
0C
0;
0:
09
18
17
06
1(
1B
0A
0@
0?
1<
19
0B
#520000
0#
01
#525000
1#
11
0Y
08
07
16
09
#530000
0#
01
#535000
1#
11
0X
1Y
1;
1:
19
18
17
06
0<
0;
0:
09
1<
#540000
0"
0#
0N
01
0R
0'
#545000
1#
11
0Y
1C
08
07
16
1;
1:
19
0<
#550000
0#
01
#555000
1#
11
0W
1X
1Y
1D
0>
0=
1<
0C
0;
0:
09
18
17
06
0(
1H
1A
1@
1?
0D
1>
1=
0<
19
1B
0H
0A
0@
0?
0B
#560000
0#
01
#565000
1#
11
0Y
08
07
16
09
#570000
1"
0#
1N
01
1R
1'
#575000
1#
11
0X
1Y
1;
1:
19
18
17
06
0>
0=
1<
0;
0:
09
1A
1@
1?
1>
1=
0<
1B
0A
0@
0?
0B
#580000
0#
01
#585000
1#
11
0Y
1C
08
07
16
1D
1;
1:
19
1H
0>
0=
1<
1A
1@
1?
1B
#590000
0#
01
#595000
1#
11
#600000
0"
0#
0N
01
0R
0'
#605000
1#
11
#610000
0#
01
#615000
1#
11
#620000
0#
01
#625000
1#
11
#630000
1"
0#
1N
01
1R
1'
#635000
1#
11
#640000
0#
01
#645000
1#
11
#650000
0#
01
#655000
1#
11
#660000
0#
01
#665000
1#
11
#670000
0#
01
#675000
1#
11
#680000
0"
0#
0N
01
0R
0'
#685000
1#
11
#690000
0#
01
#695000
1#
11
#700000
0#
01
#705000
1#
11
#710000
1"
0#
1N
01
1R
1'
#715000
1#
11
#720000
0#
01
#725000
1#
11
#730000
0#
01
#735000
1#
11
#740000
0#
01
#745000
1#
11
#750000
0#
01
#755000
1#
11
#760000
0#
01
#765000
1#
11
#770000
0#
01
#775000
1#
11
#780000
0#
01
#785000
1#
11
#790000
0#
01
#795000
1#
11
#800000
0#
01
#805000
1#
11
#810000
0#
01
#815000
1#
11
#820000
0#
01
#825000
1#
11
#830000
0#
01
#835000
1#
11
#840000
0"
0#
0N
01
0R
0'
#845000
1#
11
#850000
0#
01
#855000
1#
11
#860000
0#
01
#865000
1#
11
#870000
0#
01
#875000
1#
11
#880000
0#
01
#885000
1#
11
#890000
1"
0#
1N
01
1R
1'
#895000
1#
11
#900000
0#
01
#905000
1#
11
#910000
0#
01
#915000
1#
11
#920000
0#
01
#925000
1#
11
#930000
0#
01
#935000
1#
11
#940000
0#
01
#945000
1#
11
#950000
0"
0#
0N
01
0R
0'
#955000
1#
11
#960000
0#
01
#965000
1#
11
#970000
0#
01
#975000
1#
11
#980000
0#
01
#985000
1#
11
#990000
0#
01
#995000
1#
11
