Firmware/Phat/RGH1.2 Timing/Multi-NAND Logic/Quad NAND/simulation/qsim/overall.msim.vcd
$comment
	File created using the following command:
		vcd file overall.msim.vcd -direction
$end
$date
	Sun Jan 04 18:52:41 2026
$end
$version
	ModelSim Version 10.5b
$end
$timescale
	1ps
$end

$scope module quadnand_vhd_vec_tst $end
$var wire 1 ! BUT $end
$var wire 1 " CE_IN $end
$var wire 1 # CED $end
$var wire 1 $ CEQ $end
$var wire 1 % CES $end
$var wire 1 & CET $end
$var wire 1 ' CLK $end
$var wire 1 ( DBG $end
$var wire 1 ) RST $end
$var wire 1 * SMC $end

$scope module i1 $end
$var wire 1 + gnd $end
$var wire 1 , vcc $end
$var wire 1 - unknown $end
$var wire 1 . devoe $end
$var wire 1 / devclrn $end
$var wire 1 0 devpor $end
$var wire 1 1 ww_devoe $end
$var wire 1 2 ww_devclrn $end
$var wire 1 3 ww_devpor $end
$var wire 1 4 ww_RST $end
$var wire 1 5 ww_BUT $end
$var wire 1 6 ww_CLK $end
$var wire 1 7 ww_CE_IN $end
$var wire 1 8 ww_CES $end
$var wire 1 9 ww_CED $end
$var wire 1 : ww_CET $end
$var wire 1 ; ww_CEQ $end
$var wire 1 < ww_SMC $end
$var wire 1 = ww_DBG $end
$var wire 1 > \CLK~combout\ $end
$var wire 1 ? \BUT~combout\ $end
$var wire 1 @ \RST~combout\ $end
$var wire 1 A \counter_dbg~11\ $end
$var wire 1 B \Equal2~0\ $end
$var wire 1 C \counter_dbg[0]~3\ $end
$var wire 1 D \counter_dbg[0]~3COUT1_13\ $end
$var wire 1 E \counter_dbg[1]~5\ $end
$var wire 1 F \counter_dbg[1]~5COUT1_14\ $end
$var wire 1 G \counter_dbg[2]~1\ $end
$var wire 1 H \counter_dbg[2]~1COUT1_15\ $end
$var wire 1 I \counter_dbg~10_combout\ $end
$var wire 1 J \counter_dbg[3]~9\ $end
$var wire 1 K \counter_dbg[3]~9COUT1_16\ $end
$var wire 1 L \Equal6~0_combout\ $end
$var wire 1 M \Equal6~1_combout\ $end
$var wire 1 N \counter[0]~1_combout\ $end
$var wire 1 O \counter[0]~0_combout\ $end
$var wire 1 P \Equal1~1_combout\ $end
$var wire 1 Q \Equal1~2_combout\ $end
$var wire 1 R \process_1~0_combout\ $end
$var wire 1 S \Equal1~0_combout\ $end
$var wire 1 T \switch[0]~0_combout\ $end
$var wire 1 U \m_CES~regout\ $end
$var wire 1 V \CE_IN~combout\ $end
$var wire 1 W \CES~0_combout\ $end
$var wire 1 X \m_CED~regout\ $end
$var wire 1 Y \CED~0_combout\ $end
$var wire 1 Z \m_CET~regout\ $end
$var wire 1 [ \CET~0_combout\ $end
$var wire 1 \ \m_CEQ~regout\ $end
$var wire 1 ] \CEQ~0_combout\ $end
$var wire 1 ^ \counter_smc~regout\ $end
$var wire 1 _ \SMC~en_regout\ $end
$var wire 1 ` counter_dbg [4] $end
$var wire 1 a counter_dbg [3] $end
$var wire 1 b counter_dbg [2] $end
$var wire 1 c counter_dbg [1] $end
$var wire 1 d counter_dbg [0] $end
$var wire 1 e switch [1] $end
$var wire 1 f switch [0] $end
$var wire 1 g pre_sw [1] $end
$var wire 1 h pre_sw [0] $end
$var wire 1 i counter [3] $end
$var wire 1 j counter [2] $end
$var wire 1 k counter [1] $end
$var wire 1 l counter [0] $end
$var wire 1 m \ALT_INV_SMC~en_regout\ $end
$upscope $end
$upscope $end
$enddefinitions $end
#0
$dumpvars
0!
1"
1#
1$
1%
1&
0'
0(
0)
z*
0+
1,
x-
1.
1/
10
11
12
13
04
05
06
17
18
19
1:
1;
z<
0=
0>
0?
0@
0A
0B
0C
0D
1E
1F
0G
0H
0I
1J
1K
1L
1M
1N
0O
0P
0Q
1R
0S
0T
0U
1V
1W
0X
1Y
0Z
1[
0\
1]
0^
0_
1m
0`
0a
0b
0c
0d
0e
0f
0g
0h
0i
0j
0k
0l
$end
#5000
1'
16
1>
1l
#10000
0'
06
0>
#15000
1'
16
1>
1k
0l
#20000
0'
06
0>
#25000
1'
16
1>
1l
1P
#30000
0'
06
0>
#35000
1'
16
1>
1j
0k
0l
0P
#40000
0'
06
0>
#45000
1'
16
1>
1l
#50000
0'
06
0>
#55000
1'
16
1>
1k
0l
#60000
0'
06
0>
#65000
1'
16
1>
1l
1P
1Q
1S
0N
0R
1T
#70000
0'
0"
06
07
0V
0>
0W
08
0%
#75000
1'
16
1>
1f
0j
0k
0l
0P
0Q
0S
1A
1B
1N
1R
0T
#80000
0'
06
0>
#85000
1'
16
1>
1^
1X
1U
1l
1a
1b
1c
1d
1h
0B
0A
1C
1D
0E
0F
0L
1G
1H
1=
0J
0K
0M
1W
0Y
1(
09
18
0N
1O
0R
0#
1%
#90000
0'
06
0>
#95000
1'
16
1>
1_
0^
0d
0m
0C
0D
0<
0*
#100000
0'
1!
06
15
1?
0>
0O
#105000
1'
16
1>
0_
0l
0c
1d
1m
1C
1D
1E
1F
z<
0E
0F
z*
#110000
0'
1"
06
17
1V
0>
1Y
19
1#
#115000
1'
16
1>
0d
0C
0D
1L
1E
1F
#120000
0'
06
0>
#125000
1'
16
1>
0b
1c
1d
1C
1D
0E
0F
0L
0G
0H
0=
0(
1G
1H
#130000
0'
06
0>
#135000
1'
16
1>
0d
0C
0D
#140000
0'
06
0>
#145000
1'
16
1>
0c
1d
1C
1D
1E
1F
0G
0H
0E
0F
1G
1H
#150000
0'
06
0>
#155000
1'
16
1>
0d
0C
0D
1L
1E
1F
0G
0H
#160000
0'
06
0>
#165000
1'
16
1>
0a
1b
1c
1d
1C
1D
0E
0F
0L
1G
1H
1=
1J
1K
1(
0J
0K
#170000
0'
06
0>
#175000
1'
16
1>
0d
0C
0D
#180000
0'
06
0>
#185000
1'
16
1>
0c
1d
1C
1D
1E
1F
0E
0F
#190000
0'
06
0>
#195000
1'
16
1>
0d
0C
0D
1L
1E
1F
#200000
0'
06
0>
#205000
1'
16
1>
0b
1c
1d
1C
1D
0E
0F
0L
0G
0H
1M
0=
0(
1R
1J
1K
0M
1G
1H
0J
0K
0R
#210000
0'
0"
06
07
0V
0>
0Y
09
0#
#215000
1'
16
1>
0d
0C
0D
#220000
0'
06
0>
#225000
1'
16
1>
0c
1d
1C
1D
1E
1F
0G
0H
0E
0F
1G
1H
1J
1K
0J
0K
#230000
0'
06
0>
#235000
1'
16
1>
0d
0C
0D
1L
1M
1E
1F
0G
0H
1R
1J
1K
#240000
0'
1"
0!
06
17
05
0?
1V
0>
1Y
1N
19
1#
#245000
1'
16
1>
1l
#250000
0'
06
0>
#255000
1'
16
1>
1k
0l
#260000
0'
06
0>
#265000
1'
16
1>
1l
1P
#270000
0'
06
0>
#275000
1'
16
1>
1j
0k
0l
0P
#280000
0'
0"
06
07
0V
0>
0Y
09
0#
#285000
1'
16
1>
1l
#290000
0'
06
0>
#295000
1'
16
1>
1k
0l
#300000
0'
06
0>
#305000
1'
16
1>
1l
1P
1Q
1S
0N
0R
1T
#310000
0'
1"
06
17
1V
0>
1Y
19
1#
#315000
1'
16
1>
0f
0j
0k
0l
1e
0P
0Q
0S
1B
1I
1N
1R
0T
#320000
0'
06
0>
#325000
1'
16
1>
1^
1Z
0X
1l
1`
1b
1c
1d
0h
1g
0B
0I
1C
1D
0E
0F
0L
1G
1H
1=
0M
1(
0N
1O
0R
0J
0K
#330000
0'
06
0>
#335000
1'
16
1>
1_
0^
0d
0m
0C
0D
0<
0*
#340000
0'
1!
06
15
1?
0>
0O
#345000
1'
16
1>
0_
0l
0c
1d
1m
1C
1D
1E
1F
z<
0E
0F
z*
#350000
0'
06
0>
#355000
1'
16
1>
0d
0C
0D
1L
1E
1F
#360000
0'
06
0>
#365000
1'
16
1>
0b
1c
1d
1C
1D
0E
0F
0L
0G
0H
0=
0(
1J
1K
1G
1H
0J
0K
#370000
0'
06
0>
#375000
1'
16
1>
0d
0C
0D
#380000
0'
06
0>
#385000
1'
16
1>
0c
1d
1C
1D
1E
1F
0G
0H
0E
0F
1G
1H
1J
1K
0J
0K
#390000
0'
06
0>
#395000
1'
16
1>
0d
0C
0D
1L
1E
1F
0G
0H
1J
1K
#400000
0'
06
0>
#405000
1'
16
1>
0`
1a
1b
1c
1d
1C
1D
0E
0F
0L
1G
1H
1=
0J
0K
1(
#410000
0'
06
0>
#415000
1'
16
1>
0d
0C
0D
#420000
0'
06
0>
#425000
1'
16
1>
0c
1d
1C
1D
1E
1F
0E
0F
#430000
0'
0"
06
07
0V
0>
0[
0:
0&
#435000
1'
16
1>
0d
0C
0D
1L
1E
1F
#440000
0'
06
0>
#445000
1'
16
1>
0b
1c
1d
1C
1D
0E
0F
0L
0G
0H
0=
0(
1G
1H
#450000
0'
06
0>
#455000
1'
16
1>
0d
0C
0D
#460000
0'
06
0>
#465000
1'
16
1>
0c
1d
1C
1D
1E
1F
0G
0H
0E
0F
1G
1H
#470000
0'
06
0>
#475000
1'
16
1>
0d
0C
0D
1L
1E
1F
0G
0H
#480000
0'
06
0>
#485000
1'
16
1>
0a
1b
1c
1d
1C
1D
0E
0F
0L
1G
1H
1=
1J
1K
1(
0J
0K
#490000
0'
06
0>
#495000
1'
16
1>
0d
0C
0D
#500000
0'
1"
06
17
1V
0>
1[
1:
1&
#505000
1'
16
1>
0c
1d
1C
1D
1E
1F
0E
0F
#510000
0'
06
0>
#515000
1'
16
1>
0d
0C
0D
1L
1E
1F
#520000
0'
0!
06
05
0?
0>
1O
#525000
1'
16
1>
0b
1c
1d
1C
1D
0E
0F
0L
0G
0H
1M
0=
0(
1N
0O
1R
1J
1K
0M
1G
1H
0J
0K
0N
1O
0R
#530000
0'
06
0>
#535000
1'
16
1>
0d
0C
0D
#540000
0'
0"
06
07
0V
0>
0[
0:
0&
#545000
1'
16
1>
0c
1d
1C
1D
1E
1F
0G
0H
0E
0F
1G
1H
1J
1K
0J
0K
#550000
0'
06
0>
#555000
1'
16
1>
0d
0C
0D
1L
1M
1E
1F
0G
0H
1N
0O
1R
1J
1K
#560000
0'
06
0>
#565000
1'
16
1>
1l
#570000
0'
1"
06
17
1V
0>
1[
1:
1&
#575000
1'
16
1>
1k
0l
#580000
0'
06
0>
#585000
1'
16
1>
1l
1P
#590000
0'
06
0>
#595000
1'
16
1>
1j
0k
0l
0P
#600000
0'
0"
06
07
0V
0>
0[
0:
0&
#605000
1'
16
1>
1l
#610000
0'
06
0>
#615000
1'
16
1>
1k
0l
#620000
0'
06
0>
#625000
1'
16
1>
1l
1P
1Q
1S
0N
0R
1T
#630000
0'
1"
06
17
1V
0>
1[
1:
1&
#635000
1'
16
1>
1f
0j
0k
0l
0P
0Q
0S
1A
1B
1I
1N
1R
0T
#640000
0'
06
0>
#645000
1'
16
1>
1^
1\
0Z
1l
1`
1a
1b
1c
1d
1h
0B
0A
0I
1C
1D
0E
0F
0L
1G
1H
1=
0J
0K
0M
1(
0N
1O
0R
#650000
0'
06
0>
#655000
1'
16
1>
1_
0^
0d
0m
0C
0D
0<
0*
#660000
0'
06
0>
#665000
1'
16
1>
0_
0c
1d
1m
1C
1D
1E
1F
z<
0E
0F
z*
#670000
0'
1!
06
15
1?
0>
0O
#675000
1'
16
1>
0l
0d
0C
0D
1L
1E
1F
#680000
0'
0"
06
07
0V
0>
0]
0;
0$
#685000
1'
16
1>
0b
1c
1d
1C
1D
0E
0F
0L
0G
0H
0=
0(
1G
1H
#690000
0'
06
0>
#695000
1'
16
1>
0d
0C
0D
#700000
0'
06
0>
#705000
1'
16
1>
0c
1d
1C
1D
1E
1F
0G
0H
0E
0F
1G
1H
#710000
0'
1"
06
17
1V
0>
1]
1;
1$
#715000
1'
16
1>
0d
0C
0D
1L
1E
1F
0G
0H
#720000
0'
06
0>
#725000
1'
16
1>
0a
1b
1c
1d
1C
1D
0E
0F
0L
1G
1H
1=
1J
1K
1(
0J
0K
#730000
0'
06
0>
#735000
1'
16
1>
0d
0C
0D
#740000
0'
06
0>
#745000
1'
16
1>
0c
1d
1C
1D
1E
1F
0E
0F
#750000
0'
06
0>
#755000
1'
16
1>
0d
0C
0D
1L
1E
1F
#760000
0'
06
0>
#765000
1'
16
1>
0b
1c
1d
1C
1D
0E
0F
0L
0G
0H
0=
0(
1J
1K
1G
1H
0J
0K
#770000
0'
06
0>
#775000
1'
16
1>
0d
0C
0D
#780000
0'
06
0>
#785000
1'
16
1>
0c
1d
1C
1D
1E
1F
0G
0H
0E
0F
1G
1H
1J
1K
0J
0K
#790000
0'
06
0>
#795000
1'
16
1>
0d
0C
0D
1L
1E
1F
0G
0H
1J
1K
#800000
0'
06
0>
#805000
1'
16
1>
0`
1a
1b
1c
1d
1C
1D
0E
0F
0L
1G
1H
1=
0J
0K
1(
#810000
0'
06
0>
#815000
1'
16
1>
0d
0C
0D
#820000
0'
06
0>
#825000
1'
16
1>
0c
1d
1C
1D
1E
1F
0E
0F
#830000
0'
06
0>
#835000
1'
16
1>
0d
0C
0D
1L
1E
1F
#840000
0'
0"
06
07
0V
0>
0]
0;
0$
#845000
1'
16
1>
0b
1c
1d
1C
1D
0E
0F
0L
0G
0H
0=
0(
1G
1H
#850000
0'
06
0>
#855000
1'
16
1>
0d
0C
0D
#860000
0'
06
0>
#865000
1'
16
1>
0c
1d
1C
1D
1E
1F
0G
0H
0E
0F
1G
1H
#870000
0'
06
0>
#875000
1'
16
1>
0d
0C
0D
1L
1E
1F
0G
0H
#880000
0'
06
0>
#885000
1'
16
1>
0a
1b
1c
1d
1C
1D
0E
0F
0L
1G
1H
1=
1J
1K
1(
0J
0K
#890000
0'
1"
06
17
1V
0>
1]
1;
1$
#895000
1'
16
1>
0d
0C
0D
#900000
0'
06
0>
#905000
1'
16
1>
0c
1d
1C
1D
1E
1F
0E
0F
#910000
0'
06
0>
#915000
1'
16
1>
0d
0C
0D
1L
1E
1F
#920000
0'
06
0>
#925000
1'
16
1>
0b
1c
1d
1C
1D
0E
0F
0L
0G
0H
1M
0=
0(
1R
1J
1K
0M
1G
1H
0J
0K
0R
#930000
0'
06
0>
#935000
1'
16
1>
0d
0C
0D
#940000
0'
06
0>
#945000
1'
16
1>
0c
1d
1C
1D
1E
1F
0G
0H
0E
0F
1G
1H
1J
1K
0J
0K
#950000
0'
0"
06
07
0V
0>
0]
0;
0$
#955000
1'
16
1>
0d
0C
0D
1L
1M
1E
1F
0G
0H
1R
1J
1K
#960000
0'
06
0>
#965000
1'
16
1>
#970000
0'
06
0>
#975000
1'
16
1>
#980000
0'
06
0>
#985000
1'
16
1>
#990000
0'
06
0>
#995000
1'
16
1>
